{
	"info": {
		"_postman_id": "1b657717-e612-489d-b170-76151bb0769e",
		"name": "combined-vue-nodejs",
		"schema": "https://schema.getpostman.com/json/collection/v2.1.0/collection.json"
	},
	"item": [
		{
			"name": "POST /api/register",
			"request": {
				"method": "POST",
				"header": [
					{
						"key": "Content-Type",
						"value": "application/json",
						"type": "text"
					}
				],
				"body": {
					"mode": "raw",
					"raw": "    {\r\n        \"username\": \"johnfultonorg\",\r\n        \"password\": \"password_314159265\",\r\n        \"confirmPassword\": \"password_314159265\"\r\n    }"
				},
				"url": {
					"raw": "http://localhost:8080/api/register",
					"protocol": "http",
					"host": [
						"localhost"
					],
					"port": "8080",
					"path": [
						"api",
						"register"
					]
				}
			},
			"response": []
		},
		{
			"name": "POST /api/login",
			"request": {
				"method": "POST",
				"header": [
					{
						"key": "Content-Type",
						"value": "application/json",
						"type": "text"
					}
				],
				"body": {
					"mode": "raw",
					"raw": "    {\r\n        \"username\": \"johnfultonorg\",\r\n        \"password\": \"password_314159265\"\r\n    }"
				},
				"url": {
					"raw": "http://localhost:8080/api/login",
					"protocol": "http",
					"host": [
						"localhost"
					],
					"port": "8080",
					"path": [
						"api",
						"login"
					]
				}
			},
			"response": []
		},
		{
			"name": "GET /",
			"protocolProfileBehavior": {
				"disableBodyPruning": true
			},
			"request": {
				"method": "GET",
				"header": [
					{
						"key": "Content-Type",
						"value": "application/json",
						"type": "text"
					}
				],
				"body": {
					"mode": "raw",
					"raw": "    {\r\n        \"accountFrom\": 2001,\r\n        \"accountTo\": 2002,\r\n        \"amount\": 99.0\r\n    }"
				},
				"url": {
					"raw": "http://localhost:8080/",
					"protocol": "http",
					"host": [
						"localhost"
					],
					"port": "8080",
					"path": [
						""
					]
				}
			},
			"response": []
		},
		{
			"name": "POST /api/tutorials",
			"request": {
				"method": "POST",
				"header": [
					{
						"key": "Content-Type",
						"value": "application/json",
						"type": "text"
					}
				],
				"body": {
					"mode": "raw",
					"raw": "    {\r\n        \"title\": \"Another title  Rest APIs\",\r\n        \"description\": \"Another description Tut#3 Description\"\r\n    }"
				},
				"url": {
					"raw": "http://localhost:8080/api/tutorials",
					"protocol": "http",
					"host": [
						"localhost"
					],
					"port": "8080",
					"path": [
						"api",
						"tutorials"
					]
				}
			},
			"response": []
		},
		{
			"name": "GET /api/tutorials",
			"protocolProfileBehavior": {
				"disableBodyPruning": true
			},
			"request": {
				"method": "GET",
				"header": [
					{
						"key": "Content-Type",
						"value": "application/json",
						"type": "text"
					}
				],
				"body": {
					"mode": "raw",
					"raw": "    {\r\n        \"title\": \"Node Rest APIs\",\r\n        \"description\": \"Tut#3 Description\"\r\n    }"
				},
				"url": {
					"raw": "http://localhost:8080/api/tutorials",
					"protocol": "http",
					"host": [
						"localhost"
					],
					"port": "8080",
					"path": [
						"api",
						"tutorials"
					]
				}
			},
			"response": []
		},
		{
			"name": "GET /api/tutorials/2",
			"protocolProfileBehavior": {
				"disableBodyPruning": true
			},
			"request": {
				"method": "GET",
				"header": [
					{
						"key": "Content-Type",
						"value": "application/json",
						"type": "text"
					}
				],
				"body": {
					"mode": "raw",
					"raw": "    {\r\n        \"title\": \"Node Rest APIs\",\r\n        \"description\": \"Tut#3 Description\"\r\n    }"
				},
				"url": {
					"raw": "http://localhost:8080/api/tutorials/2",
					"protocol": "http",
					"host": [
						"localhost"
					],
					"port": "8080",
					"path": [
						"api",
						"tutorials",
						"2"
					]
				}
			},
			"response": []
		},
		{
			"name": "PUT /api/tutorials/2",
			"request": {
				"method": "PUT",
				"header": [
					{
						"key": "Content-Type",
						"value": "application/json",
						"type": "text"
					}
				],
				"body": {
					"mode": "raw",
					"raw": "{\r\n    \"id\": 2,\r\n    \"title\": \"Another title  Rest APIs\",\r\n    \"description\": \"Another description Tut#3 Description\",\r\n    \"published\": true\r\n}"
				},
				"url": {
					"raw": "http://localhost:8080/api/tutorials/2",
					"protocol": "http",
					"host": [
						"localhost"
					],
					"port": "8080",
					"path": [
						"api",
						"tutorials",
						"2"
					]
				}
			},
			"response": []
		},
		{
			"name": "GET /api/tutorials?title=node",
			"protocolProfileBehavior": {
				"disableBodyPruning": true
			},
			"request": {
				"method": "GET",
				"header": [
					{
						"key": "Content-Type",
						"value": "application/json",
						"type": "text"
					}
				],
				"body": {
					"mode": "raw",
					"raw": "    {\r\n        \"title\": \"Node Rest APIs\",\r\n        \"description\": \"Tut#3 Description\"\r\n    }"
				},
				"url": {
					"raw": "http://localhost:8080/api/tutorials?title=another",
					"protocol": "http",
					"host": [
						"localhost"
					],
					"port": "8080",
					"path": [
						"api",
						"tutorials"
					],
					"query": [
						{
							"key": "title",
							"value": "another"
						}
					]
				}
			},
			"response": []
		},
		{
			"name": "GET /api/tutorials/published",
			"protocolProfileBehavior": {
				"disableBodyPruning": true
			},
			"request": {
				"method": "GET",
				"header": [
					{
						"key": "Content-Type",
						"value": "application/json",
						"type": "text"
					}
				],
				"body": {
					"mode": "raw",
					"raw": "    {\r\n        \"title\": \"Node Rest APIs\",\r\n        \"description\": \"Tut#3 Description\"\r\n    }"
				},
				"url": {
					"raw": "http://localhost:8080/api/tutorials/published",
					"protocol": "http",
					"host": [
						"localhost"
					],
					"port": "8080",
					"path": [
						"api",
						"tutorials",
						"published"
					]
				}
			},
			"response": []
		},
		{
			"name": "DELETE /api/tutorials/2",
			"request": {
				"method": "DELETE",
				"header": [
					{
						"key": "Content-Type",
						"value": "application/json",
						"type": "text"
					}
				],
				"body": {
					"mode": "raw",
					"raw": ""
				},
				"url": {
					"raw": "http://localhost:8080/api/tutorials/2",
					"protocol": "http",
					"host": [
						"localhost"
					],
					"port": "8080",
					"path": [
						"api",
						"tutorials",
						"2"
					]
				}
			},
			"response": []
		},
		{
			"name": "DELETE /api/tutorials",
			"request": {
				"method": "DELETE",
				"header": [
					{
						"key": "Content-Type",
						"value": "application/json",
						"type": "text"
					}
				],
				"body": {
					"mode": "raw",
					"raw": ""
				},
				"url": {
					"raw": "http://localhost:8080/api/tutorials",
					"protocol": "http",
					"host": [
						"localhost"
					],
					"port": "8080",
					"path": [
						"api",
						"tutorials"
					]
				}
			},
			"response": []
		}
	]
}